Section 3 Manipulation des variables | DATA MINING
…
Tab_com_TACT <- RP_final %>% group_by(COM) %>%
  count(TACT_moda, wt=IPONDI) %>% 
  mutate(n=round(n))

# RP_final %>% group_by(COM, TACT_moda) %>% 
#   summarise(n=sum(IPONDI)) %>% 
#   mutate(n=round(n))

On voit qu’on a un tableau dans un format “long” puisqu’il y a plusieurs observations pour une seule commune. On va utiliser la fonction pivot_wider() mentionnée précédemment pour n’avoir qu’une ligne par commune et en colonne les types de statut avec leur nombre respectif.

Tab_com_TACT <- Tab_com_TACT %>% 
                   pivot_wider(names_from = TACT_moda, values_from = n)
Tab_com_TACT

# A tibble: 137 × 5
   COM   `Actifs en emploi` Chômeurs Retraités `Autres inactifs`
   <chr>              <dbl>    <dbl>     <dbl>             <dbl>
 1 75101               8366      941      2630              3979
 2 75102              13118     1378      2148              4964
 3 75103              19239     2085      4589              8123
 4 75104              15227     1863      4508              7513
 5 75105              27378     2611     10607             17618
 6 75106              18073     1842      8180             12176
 7 75107              23394     2165      9573             13735
 8 75108              18254     1565      5297             10534
 9 75109              34155     3482      7264             15125
10 75110              46454     6343     10645             23078
# ℹ 127 more rows
…
